{
  "project_info": {
    "project_number": "374955848544",
    "firebase_url": "https://bistdecor-222e6.firebaseio.com",
    "project_id": "bistdecor-222e6",
    "storage_bucket": "bistdecor-222e6.appspot.com"
  },
  "client": [
    {
      "client_info": {
        "mobilesdk_app_id": "1:374955848544:android:bfc79ecc44b18e9d",
        "android_client_info": {
          "package_name": "ir.uncode.tabs"
        }
      },
      "oauth_client": [
        {
          "client_id": "374955848544-lieveksihrgeuqst57s4mkkpctdlca1n.apps.googleusercontent.com",
          "client_type": 3
        }
      ],
      "api_key": [
        {
          "current_key": "AIzaSyAS8C7g030yQcq2PW3Ut_r57nr-058JuEU"
        }
      ],
      "services": {
        "analytics_service": {
          "status": 1
        },
        "appinvite_service": {
          "status": 1,
          "other_platform_oauth_client": []
        },
        "ads_service": {
          "status": 2
        }
      }
    }
  ],
  "configuration_version": "1"
}